Exploratory Data Analysis with GGplot – Russell’s Teaching Demos
…
Tools for manipulating data.

Tibbles

For this exercise we will use the data set state.x77 which comes with R. You can find more information about this data set by doing:

help(state.x77)

A tibble is a data structure with rows corresponding to cases and columns to variables. It is a tidy version of a data frame.

as_tibble(state.x77) %>% add_column(region=state.region,name=state.name,code=state.abb,center_x=state.center$x,center_y=state.center$y) -> state77
state77

# A tibble: 50 × 13
   Population Income Illiteracy `Life Exp` Murder `HS Grad` Frost   Area region 
        <dbl>  <dbl>      <dbl>      <dbl>  <dbl>     <dbl> <dbl>  <dbl> <fct>  
 1       3615   3624        2.1       69.0   15.1      41.3    20  50708 South  
 2        365   6315        1.5       69.3   11.3      66.7   152 566432 West   
 3       2212   4530        1.8       70.6    7.8      58.1    15 113417 West   
 4       2110   3378        1.9       70.7   10.1      39.9    65  51945 South  
 5      21198   5114        1.1       71.7   10.3      62.6    20 156361 West   
 6       2541   4884        0.7       72.1    6.8      63.9   166 103766 West   
 7       3100   5348        1.1       72.5    3.1      56     139   4862 Northe…
 8        579   4809        0.9       70.1    6.2      54.6   103   1982 South  
 9       8277   4815        1.3       70.7   10.7      52.6    11  54090 South  
10       4931   4091        2         68.5   13.9      40.6    60  58073 South  
# ℹ 40 more rows
# ℹ 4 more variables: name <chr>, code <chr>, center_x <dbl>, center_y <dbl>
…
Note the backward arrow ->. This is like the usual assignment operator <- except now the name of the variable is on the right instead of the left.

A typical chain looks like:

data %>% select(variables) %>% filter(cases) %>% analysis() -> result

Or maybe the analysis is replaced with a call to ggplot to make a plot.

Selecting Variables

The select() command can be used to select a subset of variables.

state77 %>% select(code,Population,Income)

# A tibble: 50 × 3
   code  Population Income
   <chr>      <dbl>  <dbl>
 1 AL          3615   3624
 2 AK           365   6315
 3 AZ          2212   4530
 4 AR          2110   3378
 5 CA         21198   5114
 6 CO          2541   4884
 7 CT          3100   5348
 8 DE           579   4809
 9 FL          8277   4815
10 GA          4931   4091
# ℹ 40 more rows

state77 %>% select(code,region:code)

# A tibble: 50 × 3
   code  region    name       
   <chr> <fct>     <chr>      
 1 AL    South     Alabama    
 2 AK    West      Alaska     
 3 AZ    West      Arizona    
 4 AR    South     Arkansas   
 5 CA    West      California 
 6 CO    West      Colorado   
 7 CT    Northeast Connecticut
 8 DE    South     Delaware   
 9 FL    South     Florida    
10 GA    South     Georgia    
# ℹ 40 more rows

state77 %>% select(-name)

# A tibble: 50 × 12
   Population Income Illiteracy `Life Exp` Murder `HS Grad` Frost   Area region 
        <dbl>  <dbl>      <dbl>      <dbl>  <dbl>     <dbl> <dbl>  <dbl> <fct>  
 1       3615   3624        2.1       69.0   15.1      41.3    20  50708 South  
 2        365   6315        1.5       69.3   11.3      66.7   152 566432 West   
 3       2212   4530        1.8       70.6    7.8      58.1    15 113417 West   
 4       2110   3378        1.9       70.7   10.1      39.9    65  51945 South  
 5      21198   5114        1.1       71.7   10.3      62.6    20 156361 West   
 6       2541   4884        0.7       72.1    6.8      63.9   166 103766 West   
 7       3100   5348        1.1       72.5    3.1      56     139   4862 Northe…
 8        579   4809        0.9       70.1    6.2      54.6   103   1982 South  
 9       8277   4815        1.3       70.7   10.7      52.6    11  54090 South  
10       4931   4091        2         68.5   13.9      40.6    60  58073 South  
# ℹ 40 more rows
# ℹ 3 more variables: code <chr>, center_x <dbl>, center_y <dbl>

state77 %>% select(code,starts_with("center"))

# A tibble: 50 × 3
   code  center_x center_y
   <chr>    <dbl>    <dbl>
 1 AL       -86.8     32.6
 2 AK      -127.      49.2
 3 AZ      -112.      34.2
 4 AR       -92.3     34.7
 5 CA      -120.      36.5
 6 CO      -106.      38.7
 7 CT       -72.4     41.6
 8 DE       -75.0     38.7
 9 FL       -81.7     27.9
10 GA       -83.4     32.3
# ℹ 40 more rows
…
For example, using lm() to fit a regression of ggplot() to make a plot will just use the variables referenced in the model or plot description.

However, sometimes is it easier to work with a smaller subset of the data with just the stuff you need.

Making New Variables

We already saw the add_column() function for adding columns.

The mutate() function adds new columns as a function of the old ones:

state77 %>% mutate(Pop_Density=Population/Area) -> state77a
state77a

# A tibble: 50 × 14
   Population Income Illiteracy `Life Exp` Murder `HS Grad` Frost   Area region 
        <dbl>  <dbl>      <dbl>      <dbl>  <dbl>     <dbl> <dbl>  <dbl> <fct>  
 1       3615   3624        2.1       69.0   15.1      41.3    20  50708 South  
 2        365   6315        1.5       69.3   11.3      66.7   152 566432 West   
 3       2212   4530        1.8       70.6    7.8      58.1    15 113417 West   
 4       2110   3378        1.9       70.7   10.1      39.9    65  51945 South  
 5      21198   5114        1.1       71.7   10.3      62.6    20 156361 West   
 6       2541   4884        0.7       72.1    6.8      63.9   166 103766 West   
 7       3100   5348        1.1       72.5    3.1      56     139   4862 Northe…
 8        579   4809        0.9       70.1    6.2      54.6   103   1982 South  
 9       8277   4815        1.3       70.7   10.7      52.6    11  54090 South  
10       4931   4091        2         68.5   13.9      40.6    60  58073 South  
# ℹ 40 more rows
# ℹ 5 more variables: name <chr>, code <chr>, center_x <dbl>, center_y <dbl>,
#   Pop_Density <dbl>
…
Nonsense numeric value, e.g., -9

When using nonsense numeric values, it is important to pick a value that is not plausible, e.g., a large negative value. That way, if you accidently forget to convert, you can know that something is wrong.

The function na_if() can be used to replace a value with NAs.

na_if(c(1:5,-9),-9)

[1]  1  2  3  4  5 NA

starwars %>% select(name,eye_color) %>%
  mutate(eye_color=na_if(eye_color,"unknown"))

# A tibble: 87 × 2
   name               eye_color
   <chr>              <chr>    
 1 Luke Skywalker     blue     
 2 C-3PO              yellow   
 3 R2-D2              red      
 4 Darth Vader        yellow   
 5 Leia Organa        brown    
 6 Owen Lars          blue     
 7 Beru Whitesun Lars blue     
 8 R5-D4              red      
 9 Biggs Darklighter  brown    
10 Obi-Wan Kenobi     blue-gray
# ℹ 77 more rows
…
drupes <- c("Almond","Cashew","Walnut")
c("Peanut","Almond","Hazelnut","Macademia","Cashew") %in% drupes

[1] FALSE  TRUE FALSE FALSE  TRUE

Selecting Cases

Very often instead of setting the value to NA, we just want to exclude that row from the data set.

The command filter() does this.

state77 %>% filter(!(code %in% c("AK","HI")))

# A tibble: 48 × 13
   Population Income Illiteracy `Life Exp` Murder `HS Grad` Frost   Area region 
        <dbl>  <dbl>      <dbl>      <dbl>  <dbl>     <dbl> <dbl>  <dbl> <fct>  
 1       3615   3624        2.1       69.0   15.1      41.3    20  50708 South  
 2       2212   4530        1.8       70.6    7.8      58.1    15 113417 West   
 3       2110   3378        1.9       70.7   10.1      39.9    65  51945 South  
 4      21198   5114        1.1       71.7   10.3      62.6    20 156361 West   
 5       2541   4884        0.7       72.1    6.8      63.9   166 103766 West   
 6       3100   5348        1.1       72.5    3.1      56     139   4862 Northe…
 7        579   4809        0.9       70.1    6.2      54.6   103   1982 South  
 8       8277   4815        1.3       70.7   10.7      52.6    11  54090 South  
 9       4931   4091        2         68.5   13.9      40.6    60  58073 South  
10        813   4119        0.6       71.9    5.3      59.5   126  82677 West   
# ℹ 38 more rows
# ℹ 4 more variables: name <chr>, code <chr>, center_x <dbl>, center_y <dbl>

Sometimes we want to temporarily remove the biggest values or the smallest values so we can see the details in a plot.

state77 %>% select(name,Area) %>% filter(Area <200000)

# A tibble: 48 × 2
   name          Area
   <chr>        <dbl>
 1 Alabama      50708
 2 Arizona     113417
 3 Arkansas     51945
 4 California  156361
 5 Colorado    103766
 6 Connecticut   4862
 7 Delaware      1982
 8 Florida      54090
 9 Georgia      58073
10 Hawaii        6425
# ℹ 38 more rows
…
